sapchopper_col_1 = {
	slot = 1
	generic = no
	ai = yes 
	has_country_shield = yes
	potential = { tag = I41 }

	sapchopper_directing_the_host = {
		icon = mission_assemble_an_army
		position = 1
		required_missions = {}
	
		trigger = {
			has_estate_privilege = estate_monstrous_tribes_chieftains_autonomy
			has_estate_privilege = estate_monstrous_tribes_tribal_host
		}
		
		effect = {
			add_country_modifier = {
				name = sapchopper_directing_the_host_reward
				duration = 3650
			}
		}
	}

	sapchopper_proof_of_strength = {
		icon = mission_native_build_army_mission
		position = 2
		required_missions = {
			sapchopper_directing_the_host
			sapchopper_loyalty_in_loot
		}
	
		trigger = {
			prestige = 50
			army_tradition = 25
			adm_power = 100
		}
		
		effect = {
			change_estate_land_share = {
				estate = estate_monstrous_tribes
				share = -10
			}
			change_government_reform_progress = 50
			capital_scope = { add_next_institution_embracement = 50 }
			add_adm_power = -100
		}
	}

	sapchopper_hewn_from_dookan = {
		icon = mission_orc_chillin
		position = 6
		required_missions = {
			sapchopper_proof_of_strength
		}

		provinces_to_highlight = {
			superregion = deepwoods_superregion
			NOT = { owned_by = ROOT }
		}
	
		trigger = {
			power_projection = 50
			num_of_provinces_owned_or_owned_by_non_sovereign_subjects_with = {
				value = 40
				superregion = deepwoods_superregion
			}
			custom_trigger_tooltip = {
				tooltip = sapchopper_hewn_from_dookan_victories_tooltip
				check_variable = {
					which = sapchopperWarVictories
					value = 5
				}
			}
		}
		
		effect = {
			add_country_modifier = {
				name = sapchopper_hewn_from_dookan_reward
				duration = 7300
			}
			capital_scope = { add_next_institution_embracement = 50 }
		}
	}
}

sapchopper_col_2 = {
	slot = 2
	generic = no
	ai = yes 
	has_country_shield = yes
	potential = { tag = I41 }

	sapchopper_loyalty_in_loot = {
		icon = mission_war_chest
		position = 1
		required_missions = {}
	
		trigger = {
			custom_trigger_tooltip = {
				tooltip = sapchopper_loyalty_in_loot_tt

				any_rival_country = {
					capital_scope = {
						is_looted = yes
						devastation = 10
						controlled_by = ROOT
					}
				}
			}
		}
		
		effect = {
			change_government_reform_progress = 25
			add_country_modifier = {
				name = sapchopper_loyalty_in_loot_reward
				duration = 3650
			}
		}
	}

	sapchopper_ogs_legacy = {
		icon = mission_transmutation
		position = 5
		required_missions = {
			sapchopper_bloodying_some_tusks
		}
	
		trigger = {
			OR = {
				AND = {
					treasury = 350
					manpower = 5
				}
				any_owned_province = {
					province_group = deepwoods_hunter_grove
					has_building = mage_tower
				}
			}
		}
		
		effect = {
			custom_tooltip = sapchopper_ogs_legacy_reward_tt
			if = {
				limit = {
					any_owned_province = {
						province_group = deepwoods_hunter_grove
						has_building = mage_tower
					}
				}
				add_country_modifier = {
					name = sapchopper_ogs_legacy_mage_reward
					duration = 7300
				}
			} else = {
				capital_scope = {
					add_building_construction = {
						building = mage_tower
						speed = 0.5
						cost = 1
					}
				}
			}
		}
	}

	sapchopper_taming_the_wild = {
		icon = mission_early_game_buildings
		position = 7
		required_missions = {
			sapchopper_ogs_legacy
			sapchopper_the_deadliest_game
		}
	
		trigger = {
			OR = {
				workshop = 5
				monthly_income = 12
			}
		}
		
		effect = {
			country_event = { id = sapchopper.9 }
		}
	}
}

sapchopper_col_3 = {
	slot = 3
	generic = no
	ai = yes 
	has_country_shield = yes
	potential = { tag = I41 }
	
	sapchopper_cry_war = {
		icon = mission_spoils_of_war
		position = 1
		required_missions = {}
	
		trigger = {
			I28 = {
				OR = {
					has_opinion_modifier = {
						who = ROOT
						modifier = scornfully_insulted
					}
					exists = no
				}
			}
			I29 = {
				OR = {
					has_opinion_modifier = {
						who = ROOT
						modifier = scornfully_insulted
					}
					exists = no
				}
			}
		}
		
		effect = {
			add_country_modifier = {
				name = sapchopper_cry_war_reward
				duration = 3650
			}
		}
	}

	sapchopper_and_rend_havoc = {
		icon = mission_beheading
		position = 2
		required_missions = {
			sapchopper_cry_war
			sapchopper_whet_the_axe
		}
	
		trigger = {
			OR = {
				has_spy_network_in = {
					who = I28
					value = 30
				}
				I28 = {
					exists = no
				}
			}
			OR = {
				has_spy_network_in = {
					who = I29
					value = 30
				}
				I29 = {
					exists = no
				}
			}
		}
		
		effect = {
			add_country_modifier = {
				name = sapchopper_and_rend_havoc_reward
				duration = 3650
			}
			country_event = { id = sapchopper.2 }
		}
	}

	sapchopper_when_time_failed = {
		icon = mission_magical_forest
		position = 3
		required_missions = {
			sapchopper_and_rend_havoc
		}

		provinces_to_highlight = {
			OR = {
				AND = {
					province_group = deepwoods_thorn_grove
					culture = wood_elf
					NOT = { owned_by = ROOT }
				}
				AND = { 
					province_group = deepwoods_bone_grove
					culture = wood_elf
					NOT = { owned_by = ROOT }
				}
			}
		}
	
		trigger = {
			owns_all_provinces = {
				province_group = deepwoods_thorn_grove
				culture = wood_elf
			}
			owns_all_provinces = {
				province_group = deepwoods_bone_grove
				culture = wood_elf
			}
		}
		
		effect = {
			country_event = { id = sapchopper.3 }
		}
	}

	sapchopper_bloodying_some_tusks = {
		icon = mission_heated_battle
		position = 4
		required_missions = {
			sapchopper_when_time_failed
		}

		provinces_to_highlight = {
			OR = {
				AND = {
					province_group = deepwoods_hunter_grove
					culture = green_orc
					NOT = { owned_by = ROOT }
				}
				AND = {
					area = fealmyraeth_area
					NOT = { owned_by = ROOT }
				}
			}
		}
	
		trigger = {
			AND = {
				I39 = {
					exists = no
				}
				owns_all_provinces = {
					area = fealmyraeth_area
				}
			}
		}
		
		effect = {
			add_stability_or_adm_power = yes
			every_province = {
				limit = {
					province_group = deepwoods_hunter_grove
					NOT = { owned_by = ROOT }
				}
				add_claim = ROOT
			}
			country_event = { id = sapchopper.6 }
		}
	}

	sapchopper_the_hunters_hunted = {
		icon = mission_skull
		position = 5
		required_missions = {
			sapchopper_bloodying_some_tusks
		}

		provinces_to_highlight = {
			OR = {
				AND = {
					province_group = deepwoods_hunter_grove
					culture = wood_elf
					NOT = { owned_by = ROOT }
				}
				AND = {
					area = coryllann_area
					NOT = { owned_by = ROOT }
				}
			}
		}
	
		trigger = {
			owns_all_provinces = {
				OR = {
					AND = {
						province_group = deepwoods_hunter_grove
						culture = wood_elf
					}				
					area = coryllann_area
				}
			}
		}
		
		effect = {
			add_country_modifier = {
				name = sapchopper_the_hunters_hunted_reward
				duration = 7300
			}
			custom_tooltip = sapchopper_the_hunters_hunted_reward_province
			hidden_effect = {
				random_owned_province = {
					limit = {
						culture = wood_elf
						province_group = deepwoods_hunter_grove
					}
					change_trade_goods = slaves
				}
			}
		}
	}

	sapchopper_the_deadliest_game = {
		icon = mission_forest_shrine
		position = 6
		required_missions = {
			sapchopper_the_hunters_hunted
		}
	
		trigger = {
			treasury = 100
			any_owned_province = {
				trade_goods = fur
				base_production = 8
				province_group = deepwoods_hunter_grove
			}
		}
		
		effect = {
			add_treasury = -100
			every_owned_province = {
				limit = {
					trade_goods = fur
					province_group = deepwoods_hunter_grove
				}
				add_province_modifier = {
					name = sapchopper_the_deadliest_game_reward
					duration = 7300
				}	
			}
			
			country_event = { id = sapchopper.8 }
		}
	}

	sapchopper_into_the_shadows = {
		icon = mission_sinister_castle
		position = 8
		required_missions = {
			sapchopper_taming_the_wild
			sapchopper_dark_whispers
		}
	
		trigger = {
			OR = {
				AND = {
					alliance_with = I43
					I43 = { 
						has_opinion = { who = ROOT value = 200 }
						gives_military_access_to = ROOT
					}
				}
				owns_all_provinces = {
					province_group = deepwoods_shadow_grove
				}
			}
		}
		
		effect = {
			if = {
				limit = {
					owns_all_provinces = {
						province_group = deepwoods_shadow_grove
					}
				}
				deepwoods_shadow_grove = {
					add_province_modifier = {
						name = sapchopper_into_the_shadows_conquest_reward
						duration = 7300
					}
				}
			} else = {
				country_event = { id = sapchopper.12 }
			}
		}
	}

	sapchopper_the_path = {
		icon = mission_alone_in_the_wood
		position = 9
		required_missions = {
			sapchopper_into_the_shadows
		}
	
		trigger = {
			custom_trigger_tooltip = {
				tooltip = sapchopper_the_path_custom_trigger
				has_country_flag = ashentree_fey_investigation_completed
			}
		}
		
		effect = {
			custom_tooltip = sapchopper_the_path_reward_tt
			hidden_effect = {
				discover_province = 6258
				
				6258 = {
					cede_province = ROOT
					add_core = ROOT
					change_culture = emerald_orc
					change_religion = ashentree_pact
					set_province_flag = deepwoods_fey_portal_open
					add_great_project = {
						type = deepwoods_fey_portal
						instant = yes
					}
				}			
			}
		}
	}

	sapchopper_the_blackened_prince = {
		icon = mission_alone_in_the_forest_2
		position = 10
		required_missions = {
			sapchopper_the_path
		}
	
		trigger = {
			6258 = { has_ruler_leader_from = ROOT }
			any_hired_mercenary_company = { 
				template = merc_deepwoods_orc_rangers
				location = { province_id = 6258 }
			}
		}
		
		effect = {
			remove_country_modifier = deepwoods_orc_ashenfey_tax_buff
			remove_country_modifier = deepwoods_orc_ashenfey_production_buff
			remove_country_modifier = deepwoods_orc_ashenfey_military_buff
			country_event = { id = sapchopper.14 }
		}
	}
}

sapchopper_col_4 = {
	slot = 4
	generic = no
	ai = yes 
	has_country_shield = yes
	potential = { tag = I41 }
	
	sapchopper_whet_the_axe = {
		icon = mission_build_up_to_force_limit
		position = 1
		required_missions = {}
	
		trigger = {
			army_size = 12
			capital_scope = {
				has_ruler_leader_from = ROOT
			}
			has_mil_advisor = yes
		}
		
		effect = {
			add_country_modifier = {
				name = sapchopper_whet_the_axe_reward
				duration = 3650
			}
		}
	}

	sapchopper_bramble_smashing = {
		icon = mission_magnificent_castle
		position = 2
		required_missions = {
			sapchopper_whet_the_axe
		}

		provinces_to_highlight = {
			owned_by = I35
		}
	
		trigger = {
			OR = {
				NOT = { I35 = { army_size = 1 } }
				I35 = { exists = no }
			}
		}
		
		effect = {
			I35 = {
				every_owned_province = {
					add_claim = I41		
				}
			}
		}
	}

	sapchopper_breaking_ground_and_spirits = {
		icon = mission_mounted_battle
		position = 3
		required_missions = {
			sapchopper_bramble_smashing
		}

		provinces_to_highlight = {
			province_group = deepwoods_lake_grove
			AND = {
				culture = forest_goblin
				NOT = { is_core = ROOT }
			}
		}
	
		trigger = {
			NOT = {
				deepwoods_lake_grove = {
						culture = forest_goblin
						NOT = {
								AND = {
									 owned_by = ROOT
									 is_core = ROOT
								}
						}
				}
			}
		}

		effect = {
			country_event = { id = sapchopper.4 }
			
			hidden_effect = {
				7002 = {
					save_event_target_as = slave_province_one
				}
				7001 = {
					save_event_target_as = slave_province_two
				}	
			}
			
			event_target:slave_province_one = {
				change_trade_goods = slaves
			}
			event_target:slave_province_two = {
				change_trade_goods = slaves
			}
		}
	}

	sapchopper_a_peculiar_walk = {
		icon = mission_forest_pilgrim
		position = 5
		required_missions = {
			sapchopper_breaking_ground_and_spirits
			sapchopper_elynaile_no_more
		}
	
		trigger = {
			3004 = {
				has_ruler_leader_from = ROOT
				has_building = temple
				culture = green_orc
				has_owner_religion = yes
			}
		}
		
		effect = {
			country_event = { id = sapchopper.7 }
		}
	}

	sapchopper_dark_whispers = {
		icon = mission_monarch_diplomacy
		position = 7
		required_missions = {
			sapchopper_the_deadliest_game
			sapchopper_a_peculiar_walk
		}
	
		trigger = {
			employed_advisor = { category = ADM }
			employed_advisor = { category = DIP }
			employed_advisor = { category = MIL }
		}

		effect = {
			country_event = { id = sapchopper.10 }
			capital_scope = {
				add_permanent_province_modifier = {
					name = sapchopper_the_path_clue_a
					duration = -1
				}
			}
		}
	}
}

sapchopper_col_5 = {
	slot = 5
	generic = no
	ai = yes 
	has_country_shield = yes
	potential = { tag = I41 }
	
	sapchopper_shatter_the_silence = {
		icon = mission_destroyed_city
		position = 3
		required_missions = {
			sapchopper_bramble_smashing
		}
	
		provinces_to_highlight = {
			province_id = 3004
		}

		trigger = {
			3004 = {
				owned_by = ROOT
			}
		}
		
		effect = {
			country_event = { id = sapchopper.5 }
		}
	}

	sapchopper_elynaile_no_more = {
		icon = mission_white_tower
		position = 4
		required_missions = {
			sapchopper_shatter_the_silence
		}
	
		trigger = {
			3004 = {
				num_of_times_improved = 6
			}			
		}
		
		effect = {
			3004 = { change_province_name = "Gudir'dar" }
			every_owned_province = {
				limit = { area = sawelear_area }
				add_province_modifier = {
					name = sapchopper_elynaile_no_more_province_reward
					duration = 7300
				}
			}
			add_country_modifier = {
				name = sapchopper_elynaile_no_more_tech_reward
				duration = 7300
			}
		}
	}
}
